CMSC 320- Final Tutorial
…
# Reading the url
url <- "https://raw.githubusercontent.com/nbremer/olympicfeathers/gh-pages/data/raw%20medal%20data/Rio%202016%20gold%20medal%20winners.txt"
olympics <- read.table(url, sep = "\t", header = TRUE, na.strings = "", 
                       stringsAsFactors = FALSE)

# Giving column names
colnames(olympics) <- c("Athlete_Name", "Country", "Country_Code" , "Gender" , "Sport" , "Discipline" , "Event", "Event_Gender" , "Record" , "Record_Type")

as_data_frame(olympics)

## # A tibble: 312 x 10
##    Athlete_Name  Country     Country_Code Gender Sport Discipline Event   
##    <chr>         <chr>       <chr>        <chr>  <chr> <chr>      <chr>   
##  1 Ren Qian      China       CHN          Women  Aqua~ Diving     10m Pla~
##  2 Aisen Chen    China       CHN          Men    Aqua~ Diving     10m Pla~
##  3 Yuan Cao      China       CHN          Men    Aqua~ Diving     3m Spri~
##  4 Tingmao Shi   China       CHN          Women  Aqua~ Diving     3m Spri~
##  5 <NA>          China       CHN          Women  Aqua~ Diving     Synchro~
##  6 <NA>          China       CHN          Men    Aqua~ Diving     Synchro~
##  7 <NA>          Great Brit~ GBR          Men    Aqua~ Diving     Synchro~
##  8 <NA>          China       CHN          Women  Aqua~ Diving     Synchro~
##  9 Anthony Ervin United Sta~ USA          Men    Aqua~ Swimming   50m Fre~
## 10 Katinka Hoss~ Hungary     HUN          Women  Aqua~ Swimming   100m Ba~
## # ... with 302 more rows, and 3 more variables: Event_Gender <chr>,
## #   Record <chr>, Record_Type <chr>
…
# Using above replace function 
olympics_sub <- tidy_olympics%>%
  subset(select = -c(Event))%>%
  replace_na_new(Athlete_Name = "Anonymous", Record = 0, Record_Type = "None", Num= 0)%>%
  unite(Records, Record, Record_Type, sep='- ')%>%
  arrange(desc(Country))

as_data_frame(olympics_sub)

## # A tibble: 312 x 10
##    Athlete_Name Country Country_Code Sport Discipline Gender Records if_OR
##    <chr>        <chr>   <chr>        <chr> <chr>      <chr>  <chr>   <chr>
##  1 Hoang Xuan ~ Vietnam VIE          Shoo~ Shooting   M      Final ~ Yes  
##  2 Shakhobidin~ Uzbeki~ UZB          Boxi~ Boxing     M      0- None <NA> 
##  3 Hasanboy Du~ Uzbeki~ UZB          Boxi~ Boxing     M      0- None <NA> 
##  4 Fazliddin G~ Uzbeki~ UZB          Boxi~ Boxing     M      0- None <NA> 
##  5 Ruslan Nuru~ Uzbeki~ UZB          Weig~ Weightlif~ M      0- None <NA> 
##  6 Anthony Erv~ United~ USA          Aqua~ Swimming   M      0- None <NA> 
##  7 Anonymous    United~ USA          Aqua~ Swimming   M      0- None <NA> 
##  8 Lilly King   United~ USA          Aqua~ Swimming   W      1 m 4.~ Yes  
##  9 Simone Manu~ United~ USA          Aqua~ Swimming   W      52.70 ~ Yes  
## 10 Maya DiRado  United~ USA          Aqua~ Swimming   W      0- None <NA> 
## # ... with 302 more rows, and 2 more variables: Event_name <chr>,
## #   Num <chr>

Data Management

Here, we will divide the dataframe into subsets.Getting subsets of olympic_sub which makes it easier for analysis later. We will see the reason in the analysis section. The first one is olympics_data includes specific columns(Country, Sport, Gender, Event_name). Any unnecessary variables are removed. The second dataframe is have _record which includes Country_Code, Sport, Records, if_OR. if_OR gives yes if it is olypic record type and any recordtype, athlete name with NA rows are eliminated in this seocnd dataframe.

# Dropping Country and renaming country_code with country
olympics_data<- olympics_sub %>%
  subset(select = -c(Athlete_Name, Country, Discipline, Records, if_OR, Num))

colnames(olympics_data)[colnames(olympics_data)== "Country_Code"] <- "Country"
as_data_frame(olympics_data)

## # A tibble: 312 x 4
##    Country Sport         Gender Event_name     
##  * <chr>   <chr>         <chr>  <chr>          
##  1 VIE     Shooting      M      Air Pistol     
##  2 UZB     Boxing        M      (52kg)         
##  3 UZB     Boxing        M      Fly (49kg)     
##  4 UZB     Boxing        M      Welter (64kg)  
##  5 UZB     Weightlifting M      105kg          
##  6 USA     Aquatics      M      Freestyle      
##  7 USA     Aquatics      M      Freestyle Relay
##  8 USA     Aquatics      W      Breaststroke   
##  9 USA     Aquatics      W      Freestyle      
## 10 USA     Aquatics      W      Backstroke     
## # ... with 302 more rows

# filtering out the rows with NA
have_record <- olympics_sub%>%
  filter(Records != "0- None" & Athlete_Name != "Anonymous")%>%
  select(Athlete_Name, Gender, Country_Code, Sport, Records, if_OR)

colnames(have_record)[colnames(have_record)== "Country_Code"] <- "Country"
as_data_frame(have_record)

## # A tibble: 38 x 6
##    Athlete_Name    Gender Country Sport         Records             if_OR
##    <chr>           <chr>  <chr>   <chr>         <chr>               <chr>
##  1 Hoang Xuan Vinh M      VIE     Shooting      Final 202.5 pts- OR Yes  
##  2 Lilly King      W      USA     Aquatics      1 m 4.93 s- OR      Yes  
##  3 Simone Manuel   W      USA     Aquatics      52.70 s- OR         Yes  
##  4 Katie Ledecky   W      USA     Aquatics      3 m 56.46 s- WR     No   
##  5 Ryan Murphy     M      USA     Aquatics      51.85 s- WR         No   
##  6 Katie Ledecky   W      USA     Aquatics      8 m 4.79 s- WR      No   
##  7 Ashton Eaton    M      USA     Athletics     8893 pts- OR        Yes  
##  8 Ryan Crouser    M      USA     Athletics     22.52 m- OR         Yes  
##  9 Ginny Thrasher  W      USA     Shooting      Final 208.0 pts- OR Yes  
## 10 Yuri Cheban     M      UKR     Canoe / Kayak 39.279 s- OB        No   
## # ... with 28 more rows
…
Number of Medals Won by Country and its plot

This plot is based on the country and USA has highest wins.

country_count <- olympics_data%>% 
  group_by(Country)%>%
  summarise(wins = length(Country))%>%
  arrange(desc(wins))
country_count

## # A tibble: 59 x 2
##    Country  wins
##    <chr>   <int>
##  1 USA        46
##  2 GBR        28
##  3 CHN        26
##  4 RUS        19
##  5 GER        18
##  6 JPN        12
##  7 FRA        11
##  8 KOR         9
##  9 AUS         8
## 10 HUN         8
## # ... with 49 more rows
…
Sports popularity based on medals won and its plot

This line plot gives an outcomeof popular sports or the sports for which mot medals are taken. It looks like aquatics is the popular sport. We will see five orde rsummary to see the skew.

country_lead <- olympics_data%>% 
  select(Country, Sport)%>%
  group_by(Sport)%>%
  summarize(Popular_sport = length(Sport))%>%
  arrange(desc(Popular_sport))
country_lead

## # A tibble: 28 x 2
##    Sport         Popular_sport
##    <chr>                 <int>
##  1 Aquatics                 47
##  2 Athletics                47
##  3 Cycling                  18
##  4 Gymnastics               18
##  5 Wrestling                18
##  6 Canoe / Kayak            16
##  7 Shooting                 15
##  8 Weightlifting            15
##  9 Judo                     14
## 10 Rowing                   14
## # ... with 18 more rows
…
A t-test looks at the t-statistic, the t-distribution and degrees of freedom to determine the probability of difference between variables.

The basic t- test is applied on this tutorial. We will apply t-test and compare two vectors. We will be analyzing data on the basis of sports involved and the gender.We are using significance level of 5%.

The following data gives count for gender which are using in tidying the dataset. Also, we eliminate the X gender because, they fall on the minority category and we can see that there is huge difference between X gender and other genders.

# subset of tidy data with Sport, gender, gender count
tree_data <- olympics_data%>%
  select(Sport, Gender)%>%
  group_by(Sport, Gender)%>%
  summarize(g_count = length(Gender))%>%
  subset(Gender!= "X")
tree_data

## # A tibble: 54 x 3
## # Groups:   Sport [27]
##    Sport      Gender g_count
##    <chr>      <chr>    <int>
##  1 Aquatics   M           22
##  2 Aquatics   W           25
##  3 Archery    M            2
##  4 Archery    W            2
##  5 Athletics  M           24
##  6 Athletics  W           23
##  7 Badminton  M            2
##  8 Badminton  W            2
##  9 Basketball M            1
## 10 Basketball W            1
## # ... with 44 more rows
…
